zener.csv

Record Length,2500,Points,-125.0000000E-3,-8.000000000,,Record Length,2500,Points,-125.0000000E-3,-800.000011921E-3,
Sample Interval,99.999997474E-6,s,-124.8999983E-3,-8.000000000,,Sample Interval,99.999997474E-6,s,-124.8999983E-3,-800.000011921E-3,
Trigger Point,1.2500001E3,Samples,-124.7999966E-3,-8.079999924,,Trigger Point,1.2500001E3,Samples,-124.7999966E-3,-800.000011921E-3,
,,,-124.7000024E-3,-8.000000000,,,,,-124.7000024E-3,-800.000011921E-3,
,,,-124.6000007E-3,-8.000000000,,,,,-124.6000007E-3,-800.000011921E-3,
,,,-124.4999990E-3,-7.839999676,,,,,-124.4999990E-3,-800.000011921E-3,
Source,CH1,,-124.3999973E-3,-7.599999905,,Source,CH2,,-124.3999973E-3,-800.000011921E-3,
Vertical Units,Volts,,-124.3000031E-3,-7.440000057,,Vertical Units,Volts,,-124.3000031E-3,-800.000011921E-3,
Vertical Scale,2.0000000,,-124.2000014E-3,-7.03999996,,Vertical Scale,5.00000007,,-124.2000014E-3,-800.000011921E-3,
Vertical Offset,0,,-124.0999997E-3,-6.87999964,,Vertical Offset,0,,-124.0999997E-3,-600.000023842E-3,
Horizontal Units,s,,-123.9999980E-3,-6.48000002,,Horizontal Units,s,,-123.9999980E-3,-800.000011921E-3,
Horizontal Scale,24.99999937E-3,,-123.9000037E-3,-6.23999977,,Horizontal Scale,24.99999937E-3,,-123.9000037E-3,-800.000011921E-3,
Pt Fmt,Y,,-123.8000020E-3,-6.00000000,,Pt Fmt,Y,,-123.8000020E-3,-800.000011921E-3,
Yzero,80.000000000E-3,,-123.7000003E-3,-5.75999975,,Yzero,120.0000000E-3,,-123.7000003E-3,-800.000011921E-3,
Probe Atten,1.000000,,-123.5999987E-3,-5.59999990,,Probe Atten,1.000000,,-123.5999987E-3,-800.000011921E-3,
,,,-123.4999970E-3,-5.44000006,,,,,-123.4999970E-3,-800.000011921E-3,
Note,TBS 1052B-EDU - 07:38:56 p.m.   21/03/2018,,-123.4000027E-3,-5.27999973,,Note,TBS 1052B-EDU - 07:38:56 p.m.   21/03/2018,,-123.4000027E-3,-800.000011921E-3,
,,,-123.3000010E-3,-5.11999989,,,,,-123.3000010E-3,-800.000011921E-3,
,,,-123.1999993E-3,-4.96000004,,,,,-123.1999993E-3,-800.000011921E-3,
,,,-123.0999976E-3,-4.71999979,,,,,-123.0999976E-3,-800.000011921E-3,
,,,-123.0000034E-3,-4.48000002,,,,,-123.0000034E-3,-800.000011921E-3,
,,,-122.9000017E-3,-4.23999977,,,,,-122.9000017E-3,-800.000011921E-3,
,,,-122.8000000E-3,-3.91999984,,,,,-122.8000000E-3,-800.000011921E-3,
,,,-122.6999983E-3,-3.67999983,,,,,-122.6999983E-3,-800.000011921E-3,
,,,-122.5999966E-3,-3.35999990,,,,,-122.5999966E-3,-600.000023842E-3,
,,,-122.5000024E-3,-2.96000004,,,,,-122.5000024E-3,-800.000011921E-3,
,,,-122.4000007E-3,-2.6399999,,,,,-122.4000007E-3,-800.000011921E-3,
,,,-122.2999990E-3,-2.3199999,,,,,-122.2999990E-3,-800.000011921E-3,
,,,-122.1999973E-3,-2.0000000,,,,,-122.1999973E-3,-800.000011921E-3,
,,,-122.1000031E-3,-1.7600000,,,,,-122.1000031E-3,-800.000011921E-3,
,,,-122.0000014E-3,-1.3600000,,,,,-122.0000014E-3,-800.000011921E-3,
,,,-121.8999997E-3,-1.1200000,,,,,-121.8999997E-3,-600.000023842E-3,
,,,-121.7999980E-3,-799.999952316E-3,,,,,-121.7999980E-3,-600.000023842E-3,
,,,-121.7000037E-3,-479.999989271E-3,,,,,-121.7000037E-3,-600.000023842E-3,
,,,-121.6000021E-3,-319.99999285E-3,,,,,-121.6000021E-3,-600.000023842E-3,
,,,-121.5000004E-3,-79.999998212E-3,,,,,-121.5000004E-3,-400.00000596E-3,
,,,-121.3999987E-3,-159.99999642E-3,,,,,-121.3999987E-3,0.0,
,,,-121.2999970E-3,-159.99999642E-3,,,,,-121.2999970E-3,400.00000596E-3,
,,,-121.2000027E-3,-239.99999464E-3,,,,,-121.2000027E-3,400.00000596E-3,
,,,-121.1000010E-3,-239.99999464E-3,,,,,-121.1000010E-3,800.000011921E-3,
,,,-120.9999993E-3,-159.99999642E-3,,,,,-120.9999993E-3,1.000000,
,,,-120.8999977E-3,-159.99999642E-3,,,,,-120.8999977E-3,1.4000000,
,,,-120.8000034E-3,-159.99999642E-3,,,,,-120.8000034E-3,1.4000000,
,,,-120.7000017E-3,-79.999998212E-3,,,,,-120.7000017E-3,1.8000001,
,,,-120.6000000E-3,-79.999998212E-3,,,,,-120.6000000E-3,2.0000000,
,,,-120.4999983E-3,0.0,,,,,-120.4999983E-3,2.2000000,
,,,-120.3999966E-3,-159.99999642E-3,,,,,-120.3999966E-3,2.4000001,
,,,-120.3000024E-3,0.0,,,,,-120.3000024E-3,2.79999995,
,,,-120.2000007E-3,-79.999998212E-3,,,,,-120.2000007E-3,3.00000000,
,,,-120.0999990E-3,-239.99999464E-3,,,,,-120.0999990E-3,3.20000005,
,,,-119.9999973E-3,0.0,,,,,-119.9999973E-3,3.60000014,
,,,-119.9000031E-3,-79.999998212E-3,,,,,-119.9000031E-3,3.79999995,
,,,-119.8000014E-3,-79.999998212E-3,,,,,-119.8000014E-3,4.00000000,
,,,-119.6999997E-3,-239.99999464E-3,,,,,-119.6999997E-3,4.00000000,
,,,-119.5999980E-3,-79.999998212E-3,,,,,-119.5999980E-3,4.40000010,
,,,-119.5000038E-3,-159.99999642E-3,,,,,-119.5000038E-3,4.59999990,
,,,-119.4000021E-3,-239.99999464E-3,,,,,-119.4000021E-3,5.00000000,
,,,-119.3000004E-3,-79.999998212E-3,,,,,-119.3000004E-3,5.00000000,
,,,-119.1999987E-3,-79.999998212E-3,,,,,-119.1999987E-3,5.20000029,
,,,-119.0999970E-3,-159.99999642E-3,,,,,-119.0999970E-3,5.59999990,
,,,-119.0000027E-3,0.0,,,,,-119.0000027E-3,5.59999990,
,,,-118.9000010E-3,-79.999998212E-3,,,,,-118.9000010E-3,6.00000000,
,,,-118.7999994E-3,-239.99999464E-3,,,,,-118.7999994E-3,6.40000010,
,,,-118.6999977E-3,-159.99999642E-3,,,,,-118.6999977E-3,6.59999990,
,,,-118.6000034E-3,-159.99999642E-3,,,,,-118.6000034E-3,6.80000019,
,,,-118.5000017E-3,-239.99999464E-3,,,,,-118.5000017E-3,6.80000019,
,,,-118.4000000E-3,-239.99999464E-3,,,,,-118.4000000E-3,7.00000000,
,,,-118.2999983E-3,-159.99999642E-3,,,,,-118.2999983E-3,7.20000029,
,,,-118.1999967E-3,-239.99999464E-3,,,,,-118.1999967E-3,7.599999905,
,,,-118.1000024E-3,79.999998212E-3,,,,,-118.1000024E-3,7.599999905,
,,,-118.0000007E-3,0.0,,,,,-118.0000007E-3,7.400000095,
,,,-117.8999990E-3,0.0,,,,,-117.8999990E-3,7.599999905,
,,,-117.7999973E-3,159.99999642E-3,,,,,-117.7999973E-3,7.599999905,
,,,-117.7000031E-3,319.99999285E-3,,,,,-117.7000031E-3,7.599999905,
,,,-117.6000014E-3,399.99997616E-3,,,,,-117.6000014E-3,7.599999905,
,,,-117.4999997E-3,479.999989271E-3,,,,,-117.4999997E-3,7.599999905,
,,,-117.3999980E-3,639.999985695E-3,,,,,-117.3999980E-3,7.599999905,
,,,-117.3000038E-3,719.999969006E-3,,,,,-117.3000038E-3,7.599999905,
,,,-117.2000021E-3,879.999995232E-3,,,,,-117.2000021E-3,7.599999905,
,,,-117.1000004E-3,959.999978542E-3,,,,,-117.1000004E-3,7.599999905,
,,,-116.9999987E-3,959.999978542E-3,,,,,-116.9999987E-3,7.599999905,
,,,-116.8999970E-3,1.0400000,,,,,-116.8999970E-3,7.599999905,
,,,-116.8000028E-3,1.1200000,,,,,-116.8000028E-3,7.599999905,
,,,-116.7000011E-3,1.0400000,,,,,-116.7000011E-3,7.599999905,
,,,-116.5999994E-3,1.1200000,,,,,-116.5999994E-3,7.599999905,
,,,-116.4999977E-3,1.0400000,,,,,-116.4999977E-3,7.599999905,
,,,-116.4000034E-3,1.0400000,,,,,-116.4000034E-3,7.599999905,
,,,-116.3000017E-3,1.1999999,,,,,-116.3000017E-3,7.599999905,
,,,-116.2000000E-3,1.0400000,,,,,-116.2000000E-3,7.599999905,
,,,-116.0999984E-3,1.1999999,,,,,-116.0999984E-3,7.599999905,
,,,-115.9999967E-3,1.0400000,,,,,-115.9999967E-3,7.599999905,
,,,-115.9000024E-3,1.1999999,,,,,-115.9000024E-3,7.599999905,
,,,-115.8000007E-3,1.1999999,,,,,-115.8000007E-3,7.599999905,
,,,-115.6999990E-3,1.1999999,,,,,-115.6999990E-3,7.599999905,
,,,-115.5999973E-3,1.2800000,,,,,-115.5999973E-3,7.599999905,
,,,-115.5000031E-3,1.1200000,,,,,-115.5000031E-3,7.599999905,
,,,-115.4000014E-3,1.1999999,,,,,-115.4000014E-3,7.599999905,
,,,-115.2999997E-3,1.0400000,,,,,-115.2999997E-3,7.599999905,
,,,-115.1999980E-3,1.1999999,,,,,-115.1999980E-3,7.599999905,
,,,-115.1000038E-3,1.1999999,,,,,-115.1000038E-3,7.599999905,
,,,-115.0000021E-3,1.1999999,,,,,-115.0000021E-3,7.599999905,
,,,-114.9000004E-3,1.1999999,,,,,-114.9000004E-3,7.599999905,
,,,-114.7999987E-3,1.1999999,,,,,-114.7999987E-3,7.599999905,
,,,-114.6999970E-3,1.1200000,,,,,-114.6999970E-3,7.599999905,
,,,-114.6000028E-3,1.1200000,,,,,-114.6000028E-3,7.599999905,
,,,-114.5000011E-3,879.999995232E-3,,,,,-114.5000011E-3,7.599999905,
,,,-114.3999994E-3,719.999969006E-3,,,,,-114.3999994E-3,7.599999905,
,,,-114.2999977E-3,479.999989271E-3,,,,,-114.2999977E-3,7.599999905,
,,,-114.2000034E-3,159.99999642E-3,,,,,-114.2000034E-3,7.599999905,
,,,-114.1000018E-3,-79.999998212E-3,,,,,-114.1000018E-3,7.400000095,
,,,-114.0000001E-3,-159.99999642E-3,,,,,-114.0000001E-3,7.00000000,
,,,-113.8999984E-3,0.0,,,,,-113.8999984E-3,6.80000019,
,,,-113.7999967E-3,-239.99999464E-3,,,,,-113.7999967E-3,6.59999990,
,,,-113.7000024E-3,239.99999464E-3,,,,,-113.7000024E-3,6.40000010,
,,,-113.6000007E-3,0.0,,,,,-113.6000007E-3,6.40000010,
,,,-113.4999990E-3,79.999998212E-3,,,,,-113.4999990E-3,6.00000000,
,,,-113.3999974E-3,-79.999998212E-3,,,,,-113.3999974E-3,6.00000000,
,,,-113.3000031E-3,-79.999998212E-3,,,,,-113.3000031E-3,5.80000019,
,,,-113.2000014E-3,-239.99999464E-3,,,,,-113.2000014E-3,5.59999990,
,,,-113.0999997E-3,-239.99999464E-3,,,,,-113.0999997E-3,5.40000010,
,,,-112.9999980E-3,-159.99999642E-3,,,,,-112.9999980E-3,5.40000010,
,,,-112.9000038E-3,-159.99999642E-3,,,,,-112.9000038E-3,4.80000019,
,,,-112.8000021E-3,-159.99999642E-3,,,,,-112.8000021E-3,4.59999990,
,,,-112.7000004E-3,-159.99999642E-3,,,,,-112.7000004E-3,4.20000029,
,,,-112.5999987E-3,-79.999998212E-3,,,,,-112.5999987E-3,3.79999995,
,,,-112.4999970E-3,0.0,,,,,-112.4999970E-3,3.40000010,
,,,-112.4000028E-3,-159.99999642E-3,,,,,-112.4000028E-3,3.20000005,
,,,-112.3000011E-3,-79.999998212E-3,,,,,-112.3000011E-3,2.79999995,
,,,-112.1999994E-3,-79.999998212E-3,,,,,-112.1999994E-3,2.6000001,
,,,-112.0999977E-3,-159.99999642E-3,,,,,-112.0999977E-3,2.2000000,
,,,-112.0000035E-3,0.0,,,,,-112.0000035E-3,1.8000001,
,,,-111.9000018E-3,-79.999998212E-3,,,,,-111.9000018E-3,1.6000000,
,,,-111.8000001E-3,-239.99999464E-3,,,,,-111.8000001E-3,1.4000000,
,,,-111.6999984E-3,-159.99999642E-3,,,,,-111.6999984E-3,1.000000,
,,,-111.5999967E-3,-79.999998212E-3,,,,,-111.5999967E-3,800.000011921E-3,
,,,-111.5000024E-3,-159.99999642E-3,,,,,-111.5000024E-3,400.00000596E-3,
,,,-111.4000008E-3,-79.999998212E-3,,,,,-111.4000008E-3,200.00000298E-3,
,,,-111.2999991E-3,-159.99999642E-3,,,,,-111.2999991E-3,-200.00000298E-3,
,,,-111.1999974E-3,-79.999998212E-3,,,,,-111.1999974E-3,-400.00000596E-3,
,,,-111.1000031E-3,0.0,,,,,-111.1000031E-3,-600.000023842E-3,
,,,-111.0000014E-3,-319.99999285E-3,,,,,-111.0000014E-3,-600.000023842E-3,
,,,-110.8999997E-3,-479.999989271E-3,,,,,-110.8999997E-3,-600.000023842E-3,
,,,-110.7999980E-3,-719.999969006E-3,,,,,-110.7999980E-3,-600.000023842E-3,
,,,-110.7000038E-3,-959.999978542E-3,,,,,-110.7000038E-3,-600.000023842E-3,
,,,-110.6000021E-3,-1.1999999,,,,,-110.6000021E-3,-600.000023842E-3,
,,,-110.5000004E-3,-1.4399999,,,,,-110.5000004E-3,-800.000011921E-3,
,,,-110.3999987E-3,-1.6799999,,,,,-110.3999987E-3,-800.000011921E-3,
,,,-110.2999970E-3,-1.8399999,,,,,-110.2999970E-3,-600.000023842E-3,
,,,-110.2000028E-3,-2.0799999,,,,,-110.2000028E-3,-600.000023842E-3,
,,,-110.1000011E-3,-2.3999999,,,,,-110.1000011E-3,-800.000011921E-3,
,,,-109.9999994E-3,-2.6399999,,,,,-109.9999994E-3,-800.000011921E-3,
,,,-109.8999977E-3,-2.87999988,,,,,-109.8999977E-3,-600.000023842E-3,
,,,-109.8000035E-3,-3.19999981,,,,,-109.8000035E-3,-800.000011921E-3,
,,,-109.7000018E-3,-3.35999990,,,,,-109.7000018E-3,-600.000023842E-3,
,,,-109.6000001E-3,-3.59999990,,,,,-109.6000001E-3,-800.000011921E-3,
,,,-109.4999984E-3,-3.83999991,,,,,-109.4999984E-3,-800.000011921E-3,
,,,-109.3999967E-3,-4.00000000,,,,,-109.3999967E-3,-800.000011921E-3,
,,,-109.3000025E-3,-4.23999977,,,,,-109.3000025E-3,-800.000011921E-3,
,,,-109.2000008E-3,-4.48000002,,,,,-109.2000008E-3,-800.000011921E-3,
,,,-109.0999991E-3,-4.63999987,,,,,-109.0999991E-3,-800.000011921E-3,
,,,-108.9999974E-3,-4.88000011,,,,,-108.9999974E-3,-800.000011921E-3,
,,,-108.9000031E-3,-5.11999989,,,,,-108.9000031E-3,-800.000011921E-3,
,,,-108.8000014E-3,-5.35999966,,,,,-108.8000014E-3,-800.000011921E-3,
,,,-108.6999997E-3,-5.59999990,,,,,-108.6999997E-3,-600.000023842E-3,
,,,-108.5999981E-3,-5.83999968,,,,,-108.5999981E-3,-800.000011921E-3,
,,,-108.5000038E-3,-6.00000000,,,,,-108.5000038E-3,-800.000011921E-3,
,,,-108.4000021E-3,-6.15999985,,,,,-108.4000021E-3,-800.000011921E-3,
,,,-108.3000004E-3,-6.39999962,,,,,-108.3000004E-3,-800.000011921E-3,
,,,-108.1999987E-3,-6.55999994,,,,,-108.1999987E-3,-800.000011921E-3,
,,,-108.0999970E-3,-6.63999987,,,,,-108.0999970E-3,-800.000011921E-3,
,,,-108.0000028E-3,-6.79999971,,,,,-108.0000028E-3,-800.000011921E-3,
,,,-107.9000011E-3,-7.03999996,,,,,-107.9000011E-3,-800.000011921E-3,
,,,-107.7999994E-3,-7.11999989,,,,,-107.7999994E-3,-800.000011921E-3,
,,,-107.6999977E-3,-7.27999973,,,,,-107.6999977E-3,-600.000023842E-3,
,,,-107.6000035E-3,-7.19999981,,,,,-107.6000035E-3,-800.000011921E-3,
,,,-107.5000018E-3,-7.440000057,,,,,-107.5000018E-3,-800.000011921E-3,
,,,-107.4000001E-3,-7.519999981,,,,,-107.4000001E-3,-800.000011921E-3,
,,,-107.2999984E-3,-7.759999752,,,,,-107.2999984E-3,-800.000011921E-3,
,,,-107.2000042E-3,-7.759999752,,,,,-107.2000042E-3,-800.000011921E-3,
,,,-107.1000025E-3,-7.839999676,,,,,-107.1000025E-3,-800.000011921E-3,
,,,-107.0000008E-3,-7.839999676,,,,,-107.0000008E-3,-800.000011921E-3,
,,,-106.8999991E-3,-7.839999676,,,,,-106.8999991E-3,-800.000011921E-3,
,,,-106.7999974E-3,-7.919999599,,,,,-106.7999974E-3,-800.000011921E-3,
,,,-106.7000031E-3,-8.000000000,,,,,-106.7000031E-3,-800.000011921E-3,
,,,-106.6000015E-3,-8.000000000,,,,,-106.6000015E-3,-800.000011921E-3,
,,,-106.4999998E-3,-8.000000000,,,,,-106.4999998E-3,-600.000023842E-3,
,,,-106.3999981E-3,-8.079999924,,,,,-106.3999981E-3,-800.000011921E-3,
,,,-106.3000038E-3,-8.000000000,,,,,-106.3000038E-3,-800.000011921E-3,
,,,-106.2000021E-3,-8.000000000,,,,,-106.2000021E-3,-800.000011921E-3,
,,,-106.1000004E-3,-8.079999924,,,,,-106.1000004E-3,-800.000011921E-3,
,,,-105.9999987E-3,-8.079999924,,,,,-105.9999987E-3,-800.000011921E-3,
,,,-105.8999971E-3,-8.079999924,,,,,-105.8999971E-3,-800.000011921E-3,
,,,-105.8000028E-3,-8.079999924,,,,,-105.8000028E-3,-800.000011921E-3,
,,,-105.7000011E-3,-8.159999847,,,,,-105.7000011E-3,-800.000011921E-3,
,,,-105.5999994E-3,-7.919999599,,,,,-105.5999994E-3,-800.000011921E-3,
,,,-105.4999977E-3,-8.000000000,,,,,-105.4999977E-3,-800.000011921E-3,
,,,-105.4000035E-3,-8.079999924,,,,,-105.4000035E-3,-800.000011921E-3,
,,,-105.3000018E-3,-8.239999771,,,,,-105.3000018E-3,-800.000011921E-3,
,,,-105.2000001E-3,-8.159999847,,,,,-105.2000001E-3,-800.000011921E-3,
,,,-105.0999984E-3,-8.000000000,,,,,-105.0999984E-3,-800.000011921E-3,
,,,-105.0000042E-3,-7.919999599,,,,,-105.0000042E-3,-800.000011921E-3,
,,,-104.9000025E-3,-7.919999599,,,,,-104.9000025E-3,-800.000011921E-3,
,,,-104.8000008E-3,-8.000000000,,,,,-104.8000008E-3,-800.000011921E-3,
,,,-104.6999991E-3,-8.000000000,,,,,-104.6999991E-3,-800.000011921E-3,
,,,-104.5999974E-3,-8.000000000,,,,,-104.5999974E-3,-800.000011921E-3,
,,,-104.5000032E-3,-7.919999599,,,,,-104.5000032E-3,-800.000011921E-3,
,,,-104.4000015E-3,-7.759999752,,,,,-104.4000015E-3,-800.000011921E-3,
,,,-104.2999998E-3,-7.35999966,,,,,-104.2999998E-3,-800.000011921E-3,
,,,-104.1999981E-3,-7.19999981,,,,,-104.1999981E-3,-800.000011921E-3,
,,,-104.1000038E-3,-6.79999971,,,,,-104.1000038E-3,-600.000023842E-3,
,,,-104.0000021E-3,-6.55999994,,,,,-104.0000021E-3,-800.000011921E-3,
,,,-103.9000005E-3,-6.31999969,,,,,-103.9000005E-3,-800.000011921E-3,
,,,-103.7999988E-3,-6.00000000,,,,,-103.7999988E-3,-800.000011921E-3,
,,,-103.6999971E-3,-5.83999968,,,,,-103.6999971E-3,-800.000011921E-3,
,,,-103.6000028E-3,-5.67999983,,,,,-103.6000028E-3,-800.000011921E-3,
,,,-103.5000011E-3,-5.44000006,,,,,-103.5000011E-3,-800.000011921E-3,
,,,-103.3999994E-3,-5.35999966,,,,,-103.3999994E-3,-800.000011921E-3,
,,,-103.2999977E-3,-5.11999989,,,,,-103.2999977E-3,-800.000011921E-3,
,,,-103.2000035E-3,-4.96000004,,,,,-103.2000035E-3,-800.000011921E-3,
,,,-103.1000018E-3,-4.71999979,,,,,-103.1000018E-3,-800.000011921E-3,
,,,-103.0000001E-3,-4.55999994,,,,,-103.0000001E-3,-800.000011921E-3,
,,,-102.8999984E-3,-4.23999977,,,,,-102.8999984E-3,-800.000011921E-3,
,,,-102.8000042E-3,-4.00000000,,,,,-102.8000042E-3,-600.000023842E-3,
,,,-102.7000025E-3,-3.67999983,,,,,-102.7000025E-3,-800.000011921E-3,
,,,-102.6000008E-3,-3.35999990,,,,,-102.6000008E-3,-800.000011921E-3,
,,,-102.4999991E-3,-3.03999996,,,,,-102.4999991E-3,-800.000011921E-3,
,,,-102.3999974E-3,-2.79999995,,,,,-102.3999974E-3,-800.000011921E-3,
,,,-102.3000032E-3,-2.3999999,,,,,-102.3000032E-3,-800.000011921E-3,
,,,-102.2000015E-3,-2.0799999,,,,,-102.2000015E-3,-800.000011921E-3,
,,,-102.0999998E-3,-1.7600000,,,,,-102.0999998E-3,-800.000011921E-3,
,,,-101.9999981E-3,-1.4399999,,,,,-101.9999981E-3,-800.000011921E-3,
,,,-101.9000039E-3,-1.1200000,,,,,-101.9000039E-3,-600.000023842E-3,
,,,-101.8000022E-3,-879.999995232E-3,,,,,-101.8000022E-3,-600.000023842E-3,
,,,-101.7000005E-3,-560.000002384E-3,,,,,-101.7000005E-3,-600.000023842E-3,
,,,-101.5999988E-3,-319.99999285E-3,,,,,-101.5999988E-3,-600.000023842E-3,
,,,-101.4999971E-3,-159.99999642E-3,,,,,-101.4999971E-3,-400.00000596E-3,
,,,-101.4000028E-3,0.0,,,,,-101.4000028E-3,-200.00000298E-3,
,,,-101.3000011E-3,0.0,,,,,-101.3000011E-3,200.00000298E-3,
,,,-101.1999995E-3,-79.999998212E-3,,,,,-101.1999995E-3,400.00000596E-3,
,,,-101.0999978E-3,-79.999998212E-3,,,,,-101.0999978E-3,800.000011921E-3,
,,,-101.0000035E-3,-79.999998212E-3,,,,,-101.0000035E-3,1.000000,
,,,-100.9000018E-3,0.0,,,,,-100.9000018E-3,1.4000000,
,,,-100.8000001E-3,-239.99999464E-3,,,,,-100.8000001E-3,1.4000000,
,,,-100.6999984E-3,-79.999998212E-3,,,,,-100.6999984E-3,1.8000001,
,,,-100.6000042E-3,-79.999998212E-3,,,,,-100.6000042E-3,2.0000000,
,,,-100.5000025E-3,-79.999998212E-3,,,,,-100.5000025E-3,2.2000000,
,,,-100.4000008E-3,-159.99999642E-3,,,,,-100.4000008E-3,2.4000001,
,,,-100.2999991E-3,-159.99999642E-3,,,,,-100.2999991E-3,2.6000001,
,,,-100.1999974E-3,-159.99999642E-3,,,,,-100.1999974E-3,2.79999995,
,,,-100.1000032E-3,-79.999998212E-3,,,,,-100.1000032E-3,3.20000005,
,,,-100.0000015E-3,-79.999998212E-3,,,,,-100.0000015E-3,3.40000010,
,,,-99.899999797E-3,0.0,,,,,-99.899999797E-3,3.79999995,
,,,-99.799998105E-3,-159.99999642E-3,,,,,-99.799998105E-3,4.20000029,
,,,-99.700003862E-3,-79.999998212E-3,,,,,-99.700003862E-3,4.20000029,
,,,-99.600002170E-3,0.0,,,,,-99.600002170E-3,4.40000010,
,,,-99.500000477E-3,-159.99999642E-3,,,,,-99.500000477E-3,4.59999990,
,,,-99.399998784E-3,-159.99999642E-3,,,,,-99.399998784E-3,4.59999990,
,,,-99.299997091E-3,-79.999998212E-3,,,,,-99.299997091E-3,5.00000000,
,,,-99.200002849E-3,0.0,,,,,-99.200002849E-3,5.40000010,
,,,-99.100001156E-3,-79.999998212E-3,,,,,-99.100001156E-3,5.40000010,
,,,-98.999999464E-3,0.0,,,,,-98.999999464E-3,5.80000019,
,,,-98.899997771E-3,0.0,,,,,-98.899997771E-3,6.00000000,
,,,-98.800003529E-3,-239.99999464E-3,,,,,-98.800003529E-3,6.20000029,
,,,-98.700001836E-3,-159.99999642E-3,,,,,-98.700001836E-3,6.40000010,
,,,-98.600000143E-3,-159.99999642E-3,,,,,-98.600000143E-3,6.59999990,
,,,-98.499998450E-3,-79.999998212E-3,,,,,-98.499998450E-3,7.00000000,
,,,-98.400004208E-3,239.99999464E-3,,,,,-98.400004208E-3,7.400000095,
,,,-98.300002515E-3,-159.99999642E-3,,,,,-98.300002515E-3,7.20000029,
,,,-98.200000823E-3,0.0,,,,,-98.200000823E-3,7.20000029,
,,,-98.099999130E-3,79.999998212E-3,,,,,-98.099999130E-3,7.400000095,
,,,-97.999997437E-3,0.0,,,,,-97.999997437E-3,7.599999905,
,,,-97.900003195E-3,0.0,,,,,-97.900003195E-3,7.599999905,
,,,-97.800001502E-3,159.99999642E-3,,,,,-97.800001502E-3,7.599999905,
,,,-97.699999809E-3,319.99999285E-3,,,,,-97.699999809E-3,7.599999905,
,,,-97.599998116E-3,399.99997616E-3,,,,,-97.599998116E-3,7.599999905,
,,,-97.500003874E-3,560.000002384E-3,,,,,-97.500003874E-3,7.599999905,
,,,-97.400002182E-3,639.999985695E-3,,,,,-97.400002182E-3,7.599999905,
,,,-97.300000489E-3,719.999969006E-3,,,,,-97.300000489E-3,7.599999905,
,,,-97.199998796E-3,799.999952316E-3,,,,,-97.199998796E-3,7.599999905,
,,,-97.099997103E-3,959.999978542E-3,,,,,-97.099997103E-3,7.599999905,
,,,-97.000002861E-3,1.0400000,,,,,-97.000002861E-3,7.599999905,
,,,-96.900001168E-3,1.0400000,,,,,-96.900001168E-3,7.599999905,
,,,-96.799999475E-3,959.999978542E-3,,,,,-96.799999475E-3,7.599999905,
,,,-96.699997783E-3,1.0400000,,,,,-96.699997783E-3,7.599999905,
,,,-96.600003541E-3,1.0400000,,,,,-96.600003541E-3,7.599999905,
